…
# If we look at his “positions held” (P39), we find the following:
# 
# purrr::map_chr(
#   .x = tw_get_property(id = "Q2391857", p = "P39") %>% dplyr::pull(value),
#   .f = tw_get_label
# )
# #> [1] "member of the European Parliament"   
# #> [2] "President of the European Parliament"
# #> [3] "member of the European Parliament"   
# #> [4] "member of the European Parliament"
# He has been more than once “member of the European Parliament”, and once “President of the European Parliament”. But this is not all that Wikidata knows about it: each of these properties comes with qualifiers.
# 
# qualifiers_df <- tw_get_qualifiers(id = "Q2391857", p = "P39")
# qualifiers_df
# #> # A tibble: 21 × 6
# #>    id       property qualifier_id qualifier_property value                   set
# #>    <chr>    <chr>    <chr>        <chr>              <chr>                 <int>
# #>  1 Q2391857 P39      Q27169       P2937              Q17315694                 1
# #>  2 Q2391857 P39      Q27169       P580               +2014-07-01T00:00:00Z     1
# #>  3 Q2391857 P39      Q27169       P4100              Q507343                   1
# #>  4 Q2391857 P39      Q27169       P768               Q3677909                  1
# #>  5 Q2391857 P39      Q27169       P1268              Q47729                    1
# #>  6 Q2391857 P39      Q27169       P2715              Q1376095                  1
# #>  7 Q2391857 P39      Q740126      P580               +2019-07-03T00:00:00Z     2
# #>  8 Q2391857 P39      Q740126      P1365              Q440710                   2
# #>  9 Q2391857 P39      Q27169       P2937              Q4644021                  3
# #> 10 Q2391857 P39      Q27169       P580               +2009-07-14T00:00:00Z     3
# #> # … with 11 more rows
# As usual, Wikidata presents everything as combinations of properties and values. Let’s translate each of these to their respective label, and separate each set of information we have about the “positions held” by Mr. Sassoli:
# 
# qualifiers_labelled_df <- qualifiers_df %>%
#   dplyr::transmute(
#     who = tw_get_label(id = id, language = "en"),
#     did = tw_get_property_label(property = property, language = "en"),
#     what = tw_get_label(id = qualifier_id, language = "en"),
#     how = tw_get_property_label(property = qualifier_property, language = "en"),
…
# #>   p     q       
# #>   <chr> <chr>   
# #> 1 P106  Q1397808
# #> 2 P21   Q6581072
# You can then pass it to tw_query(), and get a nicely formatted dataframe with all women who are resistance fighters on Wikidata.
# 
# tw_query(query = query_df)
# #> Rows: 728 Columns: 3
# #> ── Column specification ────────────────────────────────────────────────────────
# #> Delimiter: ","
# #> chr (3): item, itemLabel, itemDescription
# #> 
# #> ℹ Use `spec()` to retrieve the full column specification for this data.
# #> ℹ Specify the column types or set `show_col_types = FALSE` to quiet this message.
# #> # A tibble: 728 × 3
# #>    id      label                  description                                   
# #>    <chr>   <chr>                  <chr>                                         
# #>  1 Q274040 Alida Bosshardt        Dutch Righteous Among the Nations             
# #>  2 Q274041 Nanny of the Maroons   leader of Windward Maroons in Jamaica         
# #>  3 Q276410 Marga Klompé           Dutch politician (1912-1986)                  
# #>  4 Q283654 Maria Skobtsova        Russian saint (1891-1945)                     
# #>  5 Q285995 Maria Restituta Kafka  Franciscan nun and nurse; Nazi critic; victim…
# #>  6 Q304262 Hannie van Leeuwen     Dutch politician (1926-2018)                  
# #>  7 Q324718 Martha Dodd            American spy for the Soviet Union             
# #>  8 Q354512 Adele Stürzl           Austrian politician, member of the Austrian r…
# #>  9 Q394661 Agnes Wendland         <NA>                                          
# #> 10 Q441439 Henriette Roland Holst Dutch politician, editor (1869-1952)          
# #> # … with 718 more rows
# Or perhaps, you are interested only in women who are resistance fighters who have “France” (Q142) as “country of citizenship” (P27)? And perhaps you want the description in Italian, and if not available in French, and only then look for other fallback options?
# 
# tibble::tribble(
#   ~p, ~q,
#   "P106", "Q1397808", # Occupation: resistance fighter
#   "P21", "Q6581072", # Sex or gender: female
#   "P27", "Q142"
# ) %>% # Country of citizenship: France
#   tw_query(language = c("it", "fr"))
# #> Rows: 122 Columns: 3
# #> ── Column specification ────────────────────────────────────────────────────────
# #> Delimiter: ","
# #> chr (3): item, itemLabel, itemDescription
# #> 
# #> ℹ Use `spec()` to retrieve the full column specification for this data.
# #> ℹ Specify the column types or set `show_col_types = FALSE` to quiet this message.
# #> # A tibble: 122 × 3
# #>    id        label                           description                        
# #>    <chr>     <chr>                           <chr>                              
# #>  1 Q270319   Christiane Desroches Noblecourt egittologa e archeologa francese   
# #>  2 Q3484585  Simone Lurçat                   <NA>                               
# #>  3 Q3574046  Yvette Farnoux                  résistante française               
# #>  4 Q3574174  Yvonne Abbas                    résistante française               
# #>  5 Q5257705  Denise Laroque                  <NA>                               
# #>  6 Q6837011  Michelle Dubois                 <NA>                               
# #>  7 Q10289954 Giselle Cossard                 résistante française, femme de let…
# #>  8 Q2696536  Yolande Beekman                 espionne et agente secret des Spec…
# #>  9 Q3009723  Cécile Cerf                     résistante française               
# #> 10 Q3081207  Francine Fromond                <NA>                               
# #> # … with 112 more rows
# You can also ask other fields, beyond label and description, using the field parameter of tw_query(). But for this readme, I’ll keep things simple. Do you want more information about these results without learning yet another set of Wikidata terminology? You can still use the same commands described above, e.g.
# 
# tibble::tribble(
#   ~p, ~q,
#   "P106", "Q1397808",
#   "P21", "Q6581072",
#   "P27", "Q142"
# ) %>%
…
